spi_master.vcd
$date
     Jun 11, 2025       20:11:39
$end

$version
 SystemC 3.0.1-Accellera --- Dec 19 2024 14:36:25
$end

$timescale
     1 ps
$end

$scope module SystemC $end
$var wire    1  aaaaa  clk       $end
$var wire    1  aaaab  arst_n       $end
$var wire    1  aaaac  en       $end
$var wire    8  aaaad  ext_command_in [7:0]  $end
$var wire   24  aaaae  ext_address_in [23:0]  $end
$var wire   32  aaaaf  ext_data_in [31:0]  $end
$var wire   32  aaaag  ext_data_out [31:0]  $end
$var wire    1  aaaah  bsy       $end
$var wire    1  aaaai  cs       $end
$var wire    1  aaaaj  sck       $end
$var wire    1  aaaak  mosi       $end
$var wire    1  aaaal  miso       $end
$var wire   32  aaaam  current_state [31:0]  $end
$var wire   32  aaaan  next_state [31:0]  $end
$var wire   64  aaaao  data_save [63:0]  $end
$var wire   64  aaaap  data_tx [63:0]  $end
$var wire    6  aaaaq  data_count [5:0]  $end
$var wire    1  aaaar  data_end       $end
$var wire    4  aaaas  clk_div [3:0]  $end
$var wire    1  aaaat  clk_gen       $end
$var wire    1  aaaau  clk_gen_cmpl       $end
$upscope $end
$enddefinitions  $end

$comment
All initial values are dumped below at time 0 sec = 0 timescale units.
$end

$dumpvars
1aaaaa
0aaaab
0aaaac
b0 aaaad
b101000011011001011000011 aaaae
b11011110101011011011111011101111 aaaaf
b0 aaaag
1aaaah
1aaaai
0aaaaj
0aaaak
0aaaal
b0 aaaam
b0 aaaan
b0 aaaao
b0 aaaap
b0 aaaaq
0aaaar
b0 aaaas
0aaaat
0aaaau
$end

#5000
0aaaaa

#10000
1aaaaa

#15000
0aaaaa

#20000
1aaaaa
1aaaab
1aaaau

#25000
0aaaaa

#30000
1aaaaa
1aaaac
b10100001101100101100001111011110101011011011111011101111 aaaao

#35000
0aaaaa

#40000
1aaaaa
0aaaac
0aaaah
0aaaai
b10100001101100101100001111011110101011011011111011101111 aaaap

#45000
0aaaaa

#50000
1aaaaa
b1 aaaas
0aaaau

#55000
0aaaaa

#60000
1aaaaa
b10 aaaas

#65000
0aaaaa

#70000
1aaaaa
b11 aaaas

#75000
0aaaaa

#80000
1aaaaa
b100 aaaas

#85000
0aaaaa

#90000
1aaaaa
1aaaaj
b1 aaaaq
b0 aaaas
1aaaat

#95000
0aaaaa

#100000
1aaaaa
b1 aaaas

#105000
0aaaaa

#110000
1aaaaa
b10 aaaas

#115000
0aaaaa

#120000
1aaaaa
b11 aaaas

#125000
0aaaaa

#130000
1aaaaa
b100 aaaas

#135000
0aaaaa

#140000
1aaaaa
0aaaaj
b0 aaaas
0aaaat

#145000
0aaaaa

#150000
1aaaaa
b1 aaaas

#155000
0aaaaa

#160000
1aaaaa
b10 aaaas

#165000
0aaaaa

#170000
1aaaaa
b11 aaaas

#175000
0aaaaa

#180000
1aaaaa
b100 aaaas

#185000
0aaaaa

#190000
1aaaaa
1aaaaj
b101000011011001011000011110111101010110110111110111011110 aaaap
b10 aaaaq
b0 aaaas
1aaaat

#195000
0aaaaa

#200000
1aaaaa
b1 aaaas

#205000
0aaaaa

#210000
1aaaaa
b10 aaaas

#215000
0aaaaa

#220000
1aaaaa
b11 aaaas

#225000
0aaaaa

#230000
1aaaaa
b100 aaaas

#235000
0aaaaa

#240000
1aaaaa
0aaaaj
b0 aaaas
0aaaat

#245000
0aaaaa

#250000
1aaaaa
b1 aaaas

#255000
0aaaaa

#260000
1aaaaa
b10 aaaas

#265000
0aaaaa

#270000
1aaaaa
b11 aaaas

#275000
0aaaaa

#280000
1aaaaa
b100 aaaas

#285000
0aaaaa

#290000
1aaaaa
1aaaaj
b1010000110110010110000111101111010101101101111101110111100 aaaap
b11 aaaaq
b0 aaaas
1aaaat

#295000
0aaaaa

#300000
1aaaaa
b1 aaaas

#305000
0aaaaa

#310000
1aaaaa
b10 aaaas

#315000
0aaaaa

#320000
1aaaaa
b11 aaaas

#325000
0aaaaa

#330000
1aaaaa
b100 aaaas

#335000
0aaaaa

#340000
1aaaaa
0aaaaj
b0 aaaas
0aaaat

#345000
0aaaaa

#350000
1aaaaa
b1 aaaas

#355000
0aaaaa

#360000
1aaaaa
b10 aaaas

#365000
0aaaaa

#370000
1aaaaa
b11 aaaas

#375000
0aaaaa

#380000
1aaaaa
b100 aaaas

#385000
0aaaaa

#390000
1aaaaa
1aaaaj
b10100001101100101100001111011110101011011011111011101111000 aaaap
b100 aaaaq
b0 aaaas
1aaaat

#395000
0aaaaa

#400000
1aaaaa
b1 aaaas

#405000
0aaaaa

#410000
1aaaaa
b10 aaaas

#415000
0aaaaa

#420000
1aaaaa
b11 aaaas

#425000
0aaaaa

#430000
1aaaaa
b100 aaaas

#435000
0aaaaa

#440000
1aaaaa
0aaaaj
b0 aaaas
0aaaat

#445000
0aaaaa

#450000
1aaaaa
b1 aaaas

#455000
0aaaaa

#460000
1aaaaa
b10 aaaas

#465000
0aaaaa

#470000
1aaaaa
b11 aaaas

#475000
0aaaaa

#480000
1aaaaa
b100 aaaas

#485000
0aaaaa

#490000
1aaaaa
1aaaaj
b101000011011001011000011110111101010110110111110111011110000 aaaap
b101 aaaaq
b0 aaaas
1aaaat

#495000
0aaaaa

#500000
1aaaaa
b1 aaaas

#505000
0aaaaa

#510000
1aaaaa
b10 aaaas

#515000
0aaaaa

#520000
1aaaaa
b11 aaaas

#525000
0aaaaa

#530000
1aaaaa
b100 aaaas

#535000
0aaaaa

#540000
1aaaaa
0aaaaj
b0 aaaas
0aaaat

#545000
0aaaaa

#550000
1aaaaa
b1 aaaas

#555000
0aaaaa

#560000
1aaaaa
b10 aaaas

#565000
0aaaaa

#570000
1aaaaa
b11 aaaas

#575000
0aaaaa

#580000
1aaaaa
b100 aaaas

#585000
0aaaaa

#590000
1aaaaa
1aaaaj
b1010000110110010110000111101111010101101101111101110111100000 aaaap
b110 aaaaq
b0 aaaas
1aaaat

#595000
0aaaaa

#600000
1aaaaa
b1 aaaas

#605000
0aaaaa

#610000
1aaaaa
b10 aaaas

#615000
0aaaaa

#620000
1aaaaa
b11 aaaas

#625000
0aaaaa

#630000
1aaaaa
b100 aaaas

#635000
0aaaaa

#640000
1aaaaa
0aaaaj
b0 aaaas
0aaaat

#645000
0aaaaa

#650000
1aaaaa
b1 aaaas

#655000
0aaaaa

#660000
1aaaaa
b10 aaaas

#665000
0aaaaa

#670000
1aaaaa
b11 aaaas

#675000
0aaaaa

#680000
1aaaaa
b100 aaaas

#685000
0aaaaa

#690000
1aaaaa
1aaaaj
b10100001101100101100001111011110101011011011111011101111000000 aaaap
b111 aaaaq
b0 aaaas
1aaaat

#695000
0aaaaa

#700000
1aaaaa
b1 aaaas

#705000
0aaaaa

#710000
1aaaaa
b10 aaaas

#715000
0aaaaa

#720000
1aaaaa
b11 aaaas

#725000
0aaaaa

#730000
1aaaaa
b100 aaaas

#735000
0aaaaa

#740000
1aaaaa
0aaaaj
b0 aaaas
0aaaat

#745000
0aaaaa

#750000
1aaaaa
b1 aaaas

#755000
0aaaaa

#760000
1aaaaa
b10 aaaas

#765000
0aaaaa

#770000
1aaaaa
b11 aaaas

#775000
0aaaaa

#780000
1aaaaa
b100 aaaas

#785000
0aaaaa

#790000
1aaaaa
1aaaaj
b101000011011001011000011110111101010110110111110111011110000000 aaaap
b1000 aaaaq
b0 aaaas
1aaaat

#795000
0aaaaa

#800000
1aaaaa
b1 aaaas

#805000
0aaaaa

#810000
1aaaaa
b10 aaaas

#815000
0aaaaa

#820000
1aaaaa
b11 aaaas

#825000
0aaaaa

#830000
1aaaaa
b100 aaaas

#835000
0aaaaa

#840000
1aaaaa
0aaaaj
b0 aaaas
0aaaat

#845000
0aaaaa

#850000
1aaaaa
b1 aaaas

#855000
0aaaaa

#860000
1aaaaa
b10 aaaas

#865000
0aaaaa

#870000
1aaaaa
b11 aaaas

#875000
0aaaaa

#880000
1aaaaa
b100 aaaas

#885000
0aaaaa

#890000
1aaaaa
1aaaaj
1aaaak
b1010000110110010110000111101111010101101101111101110111100000000 aaaap
b1001 aaaaq
b0 aaaas
1aaaat

#895000
0aaaaa

#900000
1aaaaa
b1 aaaas

#905000
0aaaaa

#910000
1aaaaa
b10 aaaas

#915000
0aaaaa

#920000
1aaaaa
b11 aaaas

#925000
0aaaaa

#930000
1aaaaa
b100 aaaas

#935000
0aaaaa

#940000
1aaaaa
0aaaaj
b0 aaaas
0aaaat

#945000
0aaaaa

#950000
1aaaaa
b1 aaaas

#955000
0aaaaa

#960000
1aaaaa
b10 aaaas

#965000
0aaaaa

#970000
1aaaaa
b11 aaaas

#975000
0aaaaa

#980000
1aaaaa
b100 aaaas

#985000
0aaaaa

#990000
1aaaaa
1aaaaj
0aaaak
b100001101100101100001111011110101011011011111011101111000000000 aaaap
b1010 aaaaq
b0 aaaas
1aaaat

#995000
0aaaaa

#1000000
1aaaaa
b1 aaaas

#1005000
0aaaaa

#1010000
1aaaaa
b10 aaaas

#1015000
0aaaaa

#1020000
1aaaaa
b11 aaaas

#1025000
0aaaaa

#1030000
1aaaaa
b100 aaaas

#1035000
0aaaaa

#1040000
1aaaaa
0aaaaj
b0 aaaas
0aaaat

#1045000
0aaaaa

#1050000
1aaaaa
b1 aaaas

#1055000
0aaaaa

#1060000
1aaaaa
b10 aaaas

#1065000
0aaaaa

#1070000
1aaaaa
b11 aaaas

#1075000
0aaaaa

#1080000
1aaaaa
b100 aaaas

#1085000
0aaaaa

#1090000
1aaaaa
1aaaaj
1aaaak
b1000011011001011000011110111101010110110111110111011110000000000 aaaap
b1011 aaaaq
b0 aaaas
1aaaat

#1095000
0aaaaa

#1100000
1aaaaa
b1 aaaas

#1105000
0aaaaa

#1110000
1aaaaa
b10 aaaas

#1115000
0aaaaa

#1120000
1aaaaa
b11 aaaas

#1125000
0aaaaa

#1130000
1aaaaa
b100 aaaas

#1135000
0aaaaa

#1140000
1aaaaa
0aaaaj
b0 aaaas
0aaaat

#1145000
0aaaaa

#1150000
1aaaaa
b1 aaaas

#1155000
0aaaaa

#1160000
1aaaaa
b10 aaaas

#1165000
0aaaaa

#1170000
1aaaaa
b11 aaaas

#1175000
0aaaaa

#1180000
1aaaaa
b100 aaaas

#1185000
0aaaaa

#1190000
1aaaaa
1aaaaj
0aaaak
b110110010110000111101111010101101101111101110111100000000000 aaaap
b1100 aaaaq
b0 aaaas
1aaaat

#1195000
0aaaaa

#1200000
1aaaaa
b1 aaaas

#1205000
0aaaaa

#1210000
1aaaaa
b10 aaaas

#1215000
0aaaaa

#1220000
1aaaaa
b11 aaaas

#1225000
0aaaaa

#1230000
1aaaaa
b100 aaaas

#1235000
0aaaaa

#1240000
1aaaaa
0aaaaj
b0 aaaas
0aaaat

#1245000
0aaaaa

#1250000
1aaaaa
b1 aaaas

#1255000
0aaaaa

#1260000
1aaaaa
b10 aaaas

#1265000
0aaaaa

#1270000
1aaaaa
b11 aaaas

#1275000
0aaaaa

#1280000
1aaaaa
b100 aaaas

#1285000
0aaaaa

#1290000
1aaaaa
1aaaaj
b1101100101100001111011110101011011011111011101111000000000000 aaaap
b1101 aaaaq
b0 aaaas
1aaaat

#1295000
0aaaaa

#1300000
1aaaaa
b1 aaaas

#1305000
0aaaaa

#1310000
1aaaaa
b10 aaaas

#1315000
0aaaaa

#1320000
1aaaaa
b11 aaaas

#1325000
0aaaaa

#1330000
1aaaaa
b100 aaaas

#1335000
0aaaaa

#1340000
1aaaaa
0aaaaj
b0 aaaas
0aaaat

#1345000
0aaaaa

#1350000
1aaaaa
b1 aaaas

#1355000
0aaaaa

#1360000
1aaaaa
b10 aaaas

#1365000
0aaaaa

#1370000
1aaaaa
b11 aaaas

#1375000
0aaaaa

#1380000
1aaaaa
b100 aaaas

#1385000
0aaaaa

#1390000
1aaaaa
1aaaaj
b11011001011000011110111101010110110111110111011110000000000000 aaaap
b1110 aaaaq
b0 aaaas
1aaaat

#1395000
0aaaaa

#1400000
1aaaaa
b1 aaaas

#1405000
0aaaaa

#1410000
1aaaaa
b10 aaaas

#1415000
0aaaaa

#1420000
1aaaaa
b11 aaaas

#1425000
0aaaaa

#1430000
1aaaaa
b100 aaaas

#1435000
0aaaaa

#1440000
1aaaaa
0aaaaj
b0 aaaas
0aaaat

#1445000
0aaaaa

#1450000
1aaaaa
b1 aaaas

#1455000
0aaaaa

#1460000
1aaaaa
b10 aaaas

#1465000
0aaaaa

#1470000
1aaaaa
b11 aaaas

#1475000
0aaaaa

#1480000
1aaaaa
b100 aaaas

#1485000
0aaaaa

#1490000
1aaaaa
1aaaaj
b110110010110000111101111010101101101111101110111100000000000000 aaaap
b1111 aaaaq
b0 aaaas
1aaaat

#1495000
0aaaaa

#1500000
1aaaaa
b1 aaaas

#1505000
0aaaaa

#1510000
1aaaaa
b10 aaaas

#1515000
0aaaaa

#1520000
1aaaaa
b11 aaaas

#1525000
0aaaaa

#1530000
1aaaaa
b100 aaaas

#1535000
0aaaaa

#1540000
1aaaaa
0aaaaj
b0 aaaas
0aaaat

#1545000
0aaaaa

#1550000
1aaaaa
b1 aaaas

#1555000
0aaaaa

#1560000
1aaaaa
b10 aaaas

#1565000
0aaaaa

#1570000
1aaaaa
b11 aaaas

#1575000
0aaaaa

#1580000
1aaaaa
b100 aaaas

#1585000
0aaaaa

#1590000
1aaaaa
1aaaaj
1aaaak
b1101100101100001111011110101011011011111011101111000000000000000 aaaap
b10000 aaaaq
b0 aaaas
1aaaat

#1595000
0aaaaa

#1600000
1aaaaa
b1 aaaas

#1605000
0aaaaa

#1610000
1aaaaa
b10 aaaas

#1615000
0aaaaa

#1620000
1aaaaa
b11 aaaas

#1625000
0aaaaa

#1630000
1aaaaa
b100 aaaas

#1635000
0aaaaa

#1640000
1aaaaa
0aaaaj
b0 aaaas
0aaaat

#1645000
0aaaaa

#1650000
1aaaaa
b1 aaaas

#1655000
0aaaaa

#1660000
1aaaaa
b10 aaaas

#1665000
0aaaaa

#1670000
1aaaaa
b11 aaaas

#1675000
0aaaaa

#1680000
1aaaaa
b100 aaaas

#1685000
0aaaaa

#1690000
1aaaaa
1aaaaj
b1011001011000011110111101010110110111110111011110000000000000000 aaaap
b10001 aaaaq
b0 aaaas
1aaaat

#1695000
0aaaaa

#1700000
1aaaaa
b1 aaaas

#1705000
0aaaaa

#1710000
1aaaaa
b10 aaaas

#1715000
0aaaaa

#1720000
1aaaaa
b11 aaaas

#1725000
0aaaaa

#1730000
1aaaaa
b100 aaaas

#1735000
0aaaaa

#1740000
1aaaaa
0aaaaj
b0 aaaas
0aaaat

#1745000
0aaaaa

#1750000
1aaaaa
b1 aaaas

#1755000
0aaaaa

#1760000
1aaaaa
b10 aaaas

#1765000
0aaaaa

#1770000
1aaaaa
b11 aaaas

#1775000
0aaaaa

#1780000
1aaaaa
b100 aaaas

#1785000
0aaaaa

#1790000
1aaaaa
1aaaaj
0aaaak
b110010110000111101111010101101101111101110111100000000000000000 aaaap
b10010 aaaaq
b0 aaaas
1aaaat

#1795000
0aaaaa

#1800000
1aaaaa
b1 aaaas

#1805000
0aaaaa

#1810000
1aaaaa
b10 aaaas

#1815000
0aaaaa

#1820000
1aaaaa
b11 aaaas

#1825000
0aaaaa

#1830000
1aaaaa
b100 aaaas

#1835000
0aaaaa

#1840000
1aaaaa
0aaaaj
b0 aaaas
0aaaat

#1845000
0aaaaa

#1850000
1aaaaa
b1 aaaas

#1855000
0aaaaa

#1860000
1aaaaa
b10 aaaas

#1865000
0aaaaa

#1870000
1aaaaa
b11 aaaas

#1875000
0aaaaa

#1880000
1aaaaa
b100 aaaas

#1885000
0aaaaa

#1890000
1aaaaa
1aaaaj
1aaaak
b1100101100001111011110101011011011111011101111000000000000000000 aaaap
b10011 aaaaq
b0 aaaas
1aaaat

#1895000
0aaaaa

#1900000
1aaaaa
b1 aaaas

#1905000
0aaaaa

#1910000
1aaaaa
b10 aaaas

#1915000
0aaaaa

#1920000
1aaaaa
b11 aaaas

#1925000
0aaaaa

#1930000
1aaaaa
b100 aaaas

#1935000
0aaaaa

#1940000
1aaaaa
0aaaaj
b0 aaaas
0aaaat

#1945000
0aaaaa

#1950000
1aaaaa
b1 aaaas

#1955000
0aaaaa

#1960000
1aaaaa
b10 aaaas

#1965000
0aaaaa

#1970000
1aaaaa
b11 aaaas

#1975000
0aaaaa

#1980000
1aaaaa
b100 aaaas

#1985000
0aaaaa

#1990000
1aaaaa
1aaaaj
b1001011000011110111101010110110111110111011110000000000000000000 aaaap
b10100 aaaaq
b0 aaaas
1aaaat

#1995000
0aaaaa

#2000000
1aaaaa
b1 aaaas

#2005000
0aaaaa

#2010000
1aaaaa
b10 aaaas

#2015000
0aaaaa

#2020000
1aaaaa
b11 aaaas

#2025000
0aaaaa

#2030000
1aaaaa
b100 aaaas

#2035000
0aaaaa

#2040000
1aaaaa
0aaaaj
b0 aaaas
0aaaat

#2045000
0aaaaa

#2050000
1aaaaa
b1 aaaas

#2055000
0aaaaa

#2060000
1aaaaa
b10 aaaas

#2065000
0aaaaa

#2070000
1aaaaa
b11 aaaas

#2075000
0aaaaa

#2080000
1aaaaa
b100 aaaas

#2085000
0aaaaa

#2090000
1aaaaa
1aaaaj
0aaaak
b10110000111101111010101101101111101110111100000000000000000000 aaaap
b10101 aaaaq
b0 aaaas
1aaaat

#2095000
0aaaaa

#2100000
1aaaaa
b1 aaaas

#2105000
0aaaaa

#2110000
1aaaaa
b10 aaaas

#2115000
0aaaaa

#2120000
1aaaaa
b11 aaaas

#2125000
0aaaaa

#2130000
1aaaaa
b100 aaaas

#2135000
0aaaaa

#2140000
1aaaaa
0aaaaj
b0 aaaas
0aaaat

#2145000
0aaaaa

#2150000
1aaaaa
b1 aaaas

#2155000
0aaaaa

#2160000
1aaaaa
b10 aaaas

#2165000
0aaaaa

#2170000
1aaaaa
b11 aaaas

#2175000
0aaaaa

#2180000
1aaaaa
b100 aaaas

#2185000
0aaaaa

#2190000
1aaaaa
1aaaaj
b101100001111011110101011011011111011101111000000000000000000000 aaaap
b10110 aaaaq
b0 aaaas
1aaaat

#2195000
0aaaaa

#2200000
1aaaaa
b1 aaaas

#2205000
0aaaaa

#2210000
1aaaaa
b10 aaaas

#2215000
0aaaaa

#2220000
1aaaaa
b11 aaaas

#2225000
0aaaaa

#2230000
1aaaaa
b100 aaaas

#2235000
0aaaaa

#2240000
1aaaaa
0aaaaj
b0 aaaas
0aaaat

#2245000
0aaaaa

#2250000
1aaaaa
b1 aaaas

#2255000
0aaaaa

#2260000
1aaaaa
b10 aaaas

#2265000
0aaaaa

#2270000
1aaaaa
b11 aaaas

#2275000
0aaaaa

#2280000
1aaaaa
b100 aaaas

#2285000
0aaaaa

#2290000
1aaaaa
1aaaaj
1aaaak
b1011000011110111101010110110111110111011110000000000000000000000 aaaap
b10111 aaaaq
b0 aaaas
1aaaat

#2295000
0aaaaa

#2300000
1aaaaa
b1 aaaas

#2305000
0aaaaa

#2310000
1aaaaa
b10 aaaas

#2315000
0aaaaa

#2320000
1aaaaa
b11 aaaas

#2325000
0aaaaa

#2330000
1aaaaa
b100 aaaas

#2335000
0aaaaa

#2340000
1aaaaa
0aaaaj
b0 aaaas
0aaaat

#2345000
0aaaaa

#2350000
1aaaaa
b1 aaaas

#2355000
0aaaaa

#2360000
1aaaaa
b10 aaaas

#2365000
0aaaaa

#2370000
1aaaaa
b11 aaaas

#2375000
0aaaaa

#2380000
1aaaaa
b100 aaaas

#2385000
0aaaaa

#2390000
1aaaaa
1aaaaj
0aaaak
b110000111101111010101101101111101110111100000000000000000000000 aaaap
b11000 aaaaq
b0 aaaas
1aaaat

#2395000
0aaaaa

#2400000
1aaaaa
b1 aaaas

#2405000
0aaaaa

#2410000
1aaaaa
b10 aaaas

#2415000
0aaaaa

#2420000
1aaaaa
b11 aaaas

#2425000
0aaaaa

#2430000
1aaaaa
b100 aaaas

#2435000
0aaaaa

#2440000
1aaaaa
0aaaaj
b0 aaaas
0aaaat

#2445000
0aaaaa

#2450000
1aaaaa
b1 aaaas

#2455000
0aaaaa

#2460000
1aaaaa
b10 aaaas

#2465000
0aaaaa

#2470000
1aaaaa
b11 aaaas

#2475000
0aaaaa

#2480000
1aaaaa
b100 aaaas

#2485000
0aaaaa

#2490000
1aaaaa
1aaaaj
1aaaak
b1100001111011110101011011011111011101111000000000000000000000000 aaaap
b11001 aaaaq
b0 aaaas
1aaaat

#2495000
0aaaaa

#2500000
1aaaaa
b1 aaaas

#2505000
0aaaaa

#2510000
1aaaaa
b10 aaaas

#2515000
0aaaaa

#2520000
1aaaaa
b11 aaaas

#2525000
0aaaaa

#2530000
1aaaaa
b100 aaaas

#2535000
0aaaaa

#2540000
1aaaaa
0aaaaj
b0 aaaas
0aaaat

#2545000
0aaaaa

#2550000
1aaaaa
b1 aaaas

#2555000
0aaaaa

#2560000
1aaaaa
b10 aaaas

#2565000
0aaaaa

#2570000
1aaaaa
b11 aaaas

#2575000
0aaaaa

#2580000
1aaaaa
b100 aaaas

#2585000
0aaaaa

#2590000
1aaaaa
1aaaaj
b1000011110111101010110110111110111011110000000000000000000000000 aaaap
b11010 aaaaq
b0 aaaas
1aaaat

#2595000
0aaaaa

#2600000
1aaaaa
b1 aaaas

#2605000
0aaaaa

#2610000
1aaaaa
b10 aaaas

#2615000
0aaaaa

#2620000
1aaaaa
b11 aaaas

#2625000
0aaaaa

#2630000
1aaaaa
b100 aaaas

#2635000
0aaaaa

#2640000
1aaaaa
0aaaaj
b0 aaaas
0aaaat

#2645000
0aaaaa

#2650000
1aaaaa
b1 aaaas

#2655000
0aaaaa

#2660000
1aaaaa
b10 aaaas

#2665000
0aaaaa

#2670000
1aaaaa
b11 aaaas

#2675000
0aaaaa

#2680000
1aaaaa
b100 aaaas

#2685000
0aaaaa

#2690000
1aaaaa
1aaaaj
0aaaak
b111101111010101101101111101110111100000000000000000000000000 aaaap
b11011 aaaaq
b0 aaaas
1aaaat

#2695000
0aaaaa

#2700000
1aaaaa
b1 aaaas

#2705000
0aaaaa

#2710000
1aaaaa
b10 aaaas

#2715000
0aaaaa

#2720000
1aaaaa
b11 aaaas

#2725000
0aaaaa

#2730000
1aaaaa
b100 aaaas

#2735000
0aaaaa

#2740000
1aaaaa
0aaaaj
b0 aaaas
0aaaat

#2745000
0aaaaa

#2750000
1aaaaa
b1 aaaas

#2755000
0aaaaa

#2760000
1aaaaa
b10 aaaas

#2765000
0aaaaa

#2770000
1aaaaa
b11 aaaas

#2775000
0aaaaa

#2780000
1aaaaa
b100 aaaas

#2785000
0aaaaa

#2790000
1aaaaa
1aaaaj
b1111011110101011011011111011101111000000000000000000000000000 aaaap
b11100 aaaaq
b0 aaaas
1aaaat

#2795000
0aaaaa

#2800000
1aaaaa
b1 aaaas

#2805000
0aaaaa

#2810000
1aaaaa
b10 aaaas

#2815000
0aaaaa

#2820000
1aaaaa
b11 aaaas

#2825000
0aaaaa

#2830000
1aaaaa
b100 aaaas

#2835000
0aaaaa

#2840000
1aaaaa
0aaaaj
b0 aaaas
0aaaat

#2845000
0aaaaa

#2850000
1aaaaa
b1 aaaas

#2855000
0aaaaa

#2860000
1aaaaa
b10 aaaas

#2865000
0aaaaa

#2870000
1aaaaa
b11 aaaas

#2875000
0aaaaa

#2880000
1aaaaa
b100 aaaas

#2885000
0aaaaa

#2890000
1aaaaa
1aaaaj
b11110111101010110110111110111011110000000000000000000000000000 aaaap
b11101 aaaaq
b0 aaaas
1aaaat

#2895000
0aaaaa

#2900000
1aaaaa
b1 aaaas

#2905000
0aaaaa

#2910000
1aaaaa
b10 aaaas

#2915000
0aaaaa

#2920000
1aaaaa
b11 aaaas

#2925000
0aaaaa

#2930000
1aaaaa
b100 aaaas

#2935000
0aaaaa

#2940000
1aaaaa
0aaaaj
b0 aaaas
0aaaat

#2945000
0aaaaa

#2950000
1aaaaa
b1 aaaas

#2955000
0aaaaa

#2960000
1aaaaa
b10 aaaas

#2965000
0aaaaa

#2970000
1aaaaa
b11 aaaas

#2975000
0aaaaa

#2980000
1aaaaa
b100 aaaas

#2985000
0aaaaa

#2990000
1aaaaa
1aaaaj
b111101111010101101101111101110111100000000000000000000000000000 aaaap
b11110 aaaaq
b0 aaaas
1aaaat

#2995000
0aaaaa

#3000000
1aaaaa
b1 aaaas

#3005000
0aaaaa

#3010000
1aaaaa
b10 aaaas

#3015000
0aaaaa

#3020000
1aaaaa
b11 aaaas

#3025000
0aaaaa

#3030000
1aaaaa
b100 aaaas

#3035000
0aaaaa

#3040000
1aaaaa
0aaaaj
b0 aaaas
0aaaat

#3045000
0aaaaa

#3050000
1aaaaa
b1 aaaas

#3055000
0aaaaa

#3060000
1aaaaa
b10 aaaas

#3065000
0aaaaa

#3070000
1aaaaa
b11 aaaas

#3075000
0aaaaa

#3080000
1aaaaa
b100 aaaas

#3085000
0aaaaa

#3090000
1aaaaa
1aaaaj
1aaaak
b1111011110101011011011111011101111000000000000000000000000000000 aaaap
b11111 aaaaq
b0 aaaas
1aaaat

#3095000
0aaaaa

#3100000
1aaaaa
b1 aaaas

#3105000
0aaaaa

#3110000
1aaaaa
b10 aaaas

#3115000
0aaaaa

#3120000
1aaaaa
b11 aaaas

#3125000
0aaaaa

#3130000
1aaaaa
b100 aaaas

#3135000
0aaaaa

#3140000
1aaaaa
0aaaaj
b0 aaaas
0aaaat

#3145000
0aaaaa

#3150000
1aaaaa
b1 aaaas

#3155000
0aaaaa

#3160000
1aaaaa
b10 aaaas

#3165000
0aaaaa

#3170000
1aaaaa
b11 aaaas

#3175000
0aaaaa

#3180000
1aaaaa
b100 aaaas

#3185000
0aaaaa

#3190000
1aaaaa
1aaaaj
b1110111101010110110111110111011110000000000000000000000000000000 aaaap
b100000 aaaaq
b0 aaaas
1aaaat

#3195000
0aaaaa

#3200000
1aaaaa
b1 aaaas

#3205000
0aaaaa

#3210000
1aaaaa
b10 aaaas

#3215000
0aaaaa

#3220000
1aaaaa
b11 aaaas

#3225000
0aaaaa

#3230000
1aaaaa
b100 aaaas

#3235000
0aaaaa

#3240000
1aaaaa
0aaaaj
b0 aaaas
0aaaat

#3245000
0aaaaa

#3250000
1aaaaa
b1 aaaas

#3255000
0aaaaa

#3260000
1aaaaa
b10 aaaas

#3265000
0aaaaa

#3270000
1aaaaa
b11 aaaas

#3275000
0aaaaa

#3280000
1aaaaa
b100 aaaas

#3285000
0aaaaa

#3290000
1aaaaa
1aaaaj
b1101111010101101101111101110111100000000000000000000000000000000 aaaap
b100001 aaaaq
b0 aaaas
1aaaat

#3295000
0aaaaa

#3300000
1aaaaa
b1 aaaas

#3305000
0aaaaa

#3310000
1aaaaa
b10 aaaas

#3315000
0aaaaa

#3320000
1aaaaa
b11 aaaas

#3325000
0aaaaa

#3330000
1aaaaa
b100 aaaas

#3335000
0aaaaa

#3340000
1aaaaa
0aaaaj
b0 aaaas
0aaaat

#3345000
0aaaaa

#3350000
1aaaaa
b1 aaaas

#3355000
0aaaaa

#3360000
1aaaaa
b10 aaaas

#3365000
0aaaaa

#3370000
1aaaaa
b11 aaaas

#3375000
0aaaaa

#3380000
1aaaaa
b100 aaaas

#3385000
0aaaaa

#3390000
1aaaaa
1aaaaj
b1011110101011011011111011101111000000000000000000000000000000000 aaaap
b100010 aaaaq
b0 aaaas
1aaaat

#3395000
0aaaaa

#3400000
1aaaaa
b1 aaaas

#3405000
0aaaaa

#3410000
1aaaaa
b10 aaaas

#3415000
0aaaaa

#3420000
1aaaaa
b11 aaaas

#3425000
0aaaaa

#3430000
1aaaaa
b100 aaaas

#3435000
0aaaaa

#3440000
1aaaaa
0aaaaj
b0 aaaas
0aaaat

#3445000
0aaaaa

#3450000
1aaaaa
b1 aaaas

#3455000
0aaaaa

#3460000
1aaaaa
b10 aaaas

#3465000
0aaaaa

#3470000
1aaaaa
b11 aaaas

#3475000
0aaaaa

#3480000
1aaaaa
b100 aaaas

#3485000
0aaaaa

#3490000
1aaaaa
1aaaaj
0aaaak
b111101010110110111110111011110000000000000000000000000000000000 aaaap
b100011 aaaaq
b0 aaaas
1aaaat

#3495000
0aaaaa

#3500000
1aaaaa
b1 aaaas

#3505000
0aaaaa

#3510000
1aaaaa
b10 aaaas

#3515000
0aaaaa

#3520000
1aaaaa
b11 aaaas

#3525000
0aaaaa

#3530000
1aaaaa
b100 aaaas

#3535000
0aaaaa

#3540000
1aaaaa
0aaaaj
b0 aaaas
0aaaat

#3545000
0aaaaa

#3550000
1aaaaa
b1 aaaas

#3555000
0aaaaa

#3560000
1aaaaa
b10 aaaas

#3565000
0aaaaa

#3570000
1aaaaa
b11 aaaas

#3575000
0aaaaa

#3580000
1aaaaa
b100 aaaas

#3585000
0aaaaa

#3590000
1aaaaa
1aaaaj
1aaaak
b1111010101101101111101110111100000000000000000000000000000000000 aaaap
b100100 aaaaq
b0 aaaas
1aaaat

#3595000
0aaaaa

#3600000
1aaaaa
b1 aaaas

#3605000
0aaaaa

#3610000
1aaaaa
b10 aaaas

#3615000
0aaaaa

#3620000
1aaaaa
b11 aaaas

#3625000
0aaaaa

#3630000
1aaaaa
b100 aaaas

#3635000
0aaaaa

#3640000
1aaaaa
0aaaaj
b0 aaaas
0aaaat

#3645000
0aaaaa

#3650000
1aaaaa
b1 aaaas

#3655000
0aaaaa

#3660000
1aaaaa
b10 aaaas

#3665000
0aaaaa

#3670000
1aaaaa
b11 aaaas

#3675000
0aaaaa

#3680000
1aaaaa
b100 aaaas

#3685000
0aaaaa

#3690000
1aaaaa
1aaaaj
b1110101011011011111011101111000000000000000000000000000000000000 aaaap
b100101 aaaaq
b0 aaaas
1aaaat

#3695000
0aaaaa

#3700000
1aaaaa
b1 aaaas

#3705000
0aaaaa

#3710000
1aaaaa
b10 aaaas

#3715000
0aaaaa

#3720000
1aaaaa
b11 aaaas

#3725000
0aaaaa

