spi_master.vcd
$date
     Jun 12, 2025       19:34:12
$end

$version
 SystemC 3.0.1-Accellera --- Dec 19 2024 14:36:25
$end

$timescale
     1 ps
$end

$scope module SystemC $end
$var wire    1  aaaaa  clk       $end
$var wire    1  aaaab  arst_n       $end
$var wire    1  aaaac  en       $end
$var wire    8  aaaad  ext_command_in [7:0]  $end
$var wire   24  aaaae  ext_address_in [23:0]  $end
$var wire   32  aaaaf  ext_data_in [31:0]  $end
$var wire   32  aaaag  ext_data_out [31:0]  $end
$var wire    1  aaaah  bsy       $end
$var wire    1  aaaai  cs       $end
$var wire    1  aaaaj  sck       $end
$var wire    1  aaaak  mosi       $end
$var wire    1  aaaal  miso       $end
$upscope $end
$enddefinitions  $end

$comment
All initial values are dumped below at time 0 sec = 0 timescale units.
$end

$dumpvars
1aaaaa
0aaaab
0aaaac
b0 aaaad
b101000011011001011000011 aaaae
b11011110101011011011111011101111 aaaaf
b0 aaaag
1aaaah
1aaaai
0aaaaj
0aaaak
0aaaal
$end

#5000
0aaaaa

#10000
1aaaaa

#15000
0aaaaa

#20000
1aaaaa
1aaaab

#25000
0aaaaa

#30000
1aaaaa
1aaaac

#35000
0aaaaa

#40000
1aaaaa
0aaaac
0aaaah
0aaaai

#45000
0aaaaa

#50000
1aaaaa

#55000
0aaaaa

#60000
1aaaaa

#65000
0aaaaa

#70000
1aaaaa

#75000
0aaaaa

#80000
1aaaaa

#85000
0aaaaa

#90000
1aaaaa
1aaaaj

#95000
0aaaaa

#100000
1aaaaa

#105000
0aaaaa

#110000
1aaaaa

#115000
0aaaaa

#120000
1aaaaa

#125000
0aaaaa

#130000
1aaaaa

#135000
0aaaaa

#140000
1aaaaa
0aaaaj

#145000
0aaaaa

#150000
1aaaaa

#155000
0aaaaa

#160000
1aaaaa

#165000
0aaaaa

#170000
1aaaaa

#175000
0aaaaa

#180000
1aaaaa

#185000
0aaaaa

#190000
1aaaaa
1aaaaj

#195000
0aaaaa

#200000
1aaaaa

#205000
0aaaaa

#210000
1aaaaa

#215000
0aaaaa

#220000
1aaaaa

#225000
0aaaaa

#230000
1aaaaa

#235000
0aaaaa

#240000
1aaaaa
0aaaaj

#245000
0aaaaa

#250000
1aaaaa

#255000
0aaaaa

#260000
1aaaaa

#265000
0aaaaa

#270000
1aaaaa

#275000
0aaaaa

#280000
1aaaaa

#285000
0aaaaa

#290000
1aaaaa
1aaaaj

#295000
0aaaaa

#300000
1aaaaa

#305000
0aaaaa

#310000
1aaaaa

#315000
0aaaaa

#320000
1aaaaa

#325000
0aaaaa

#330000
1aaaaa

#335000
0aaaaa

#340000
1aaaaa
0aaaaj

#345000
0aaaaa

#350000
1aaaaa

#355000
0aaaaa

#360000
1aaaaa

#365000
0aaaaa

#370000
1aaaaa

#375000
0aaaaa

#380000
1aaaaa

#385000
0aaaaa

#390000
1aaaaa
1aaaaj

#395000
0aaaaa

#400000
1aaaaa

#405000
0aaaaa

#410000
1aaaaa

#415000
0aaaaa

#420000
1aaaaa

#425000
0aaaaa

#430000
1aaaaa

#435000
0aaaaa

#440000
1aaaaa
0aaaaj

#445000
0aaaaa

#450000
1aaaaa

#455000
0aaaaa

#460000
1aaaaa

#465000
0aaaaa

#470000
1aaaaa

#475000
0aaaaa

#480000
1aaaaa

#485000
0aaaaa

#490000
1aaaaa
1aaaaj

#495000
0aaaaa

#500000
1aaaaa

#505000
0aaaaa

#510000
1aaaaa

#515000
0aaaaa

#520000
1aaaaa

#525000
0aaaaa

#530000
1aaaaa

#535000
0aaaaa

#540000
1aaaaa
0aaaaj

#545000
0aaaaa

#550000
1aaaaa

#555000
0aaaaa

#560000
1aaaaa

#565000
0aaaaa

#570000
1aaaaa

#575000
0aaaaa

#580000
1aaaaa

#585000
0aaaaa

#590000
1aaaaa
1aaaaj

#595000
0aaaaa

#600000
1aaaaa

#605000
0aaaaa

#610000
1aaaaa

#615000
0aaaaa

#620000
1aaaaa

#625000
0aaaaa

#630000
1aaaaa

#635000
0aaaaa

#640000
1aaaaa
0aaaaj

#645000
0aaaaa

#650000
1aaaaa

#655000
0aaaaa

#660000
1aaaaa

#665000
0aaaaa

#670000
1aaaaa

#675000
0aaaaa

#680000
1aaaaa

#685000
0aaaaa

#690000
1aaaaa
1aaaaj

#695000
0aaaaa

#700000
1aaaaa

#705000
0aaaaa

#710000
1aaaaa

#715000
0aaaaa

#720000
1aaaaa

#725000
0aaaaa

#730000
1aaaaa

#735000
0aaaaa

#740000
1aaaaa
0aaaaj

#745000
0aaaaa

#750000
1aaaaa

#755000
0aaaaa

#760000
1aaaaa

#765000
0aaaaa

#770000
1aaaaa

#775000
0aaaaa

#780000
1aaaaa

#785000
0aaaaa

#790000
1aaaaa
1aaaaj

#795000
0aaaaa

#800000
1aaaaa

#805000
0aaaaa

#810000
1aaaaa

#815000
0aaaaa

#820000
1aaaaa

#825000
0aaaaa

#830000
1aaaaa

#835000
0aaaaa

#840000
1aaaaa
0aaaaj

#845000
0aaaaa

#850000
1aaaaa

#855000
0aaaaa

#860000
1aaaaa

#865000
0aaaaa

#870000
1aaaaa

#875000
0aaaaa

#880000
1aaaaa

#885000
0aaaaa

#890000
1aaaaa
1aaaaj
1aaaak

#895000
0aaaaa

#900000
1aaaaa

#905000
0aaaaa

#910000
1aaaaa

#915000
0aaaaa

#920000
1aaaaa

#925000
0aaaaa

#930000
1aaaaa

#935000
0aaaaa

#940000
1aaaaa
0aaaaj

#945000
0aaaaa

#950000
1aaaaa

#955000
0aaaaa

#960000
1aaaaa

#965000
0aaaaa

#970000
1aaaaa

#975000
0aaaaa

#980000
1aaaaa

#985000
0aaaaa

#990000
1aaaaa
1aaaaj
0aaaak

#995000
0aaaaa

#1000000
1aaaaa

#1005000
0aaaaa

#1010000
1aaaaa

#1015000
0aaaaa

#1020000
1aaaaa

#1025000
0aaaaa

#1030000
1aaaaa

#1035000
0aaaaa

#1040000
1aaaaa
0aaaaj

#1045000
0aaaaa

#1050000
1aaaaa

#1055000
0aaaaa

#1060000
1aaaaa

#1065000
0aaaaa

#1070000
1aaaaa

#1075000
0aaaaa

#1080000
1aaaaa

#1085000
0aaaaa

#1090000
1aaaaa
1aaaaj
1aaaak

#1095000
0aaaaa

#1100000
1aaaaa

#1105000
0aaaaa

#1110000
1aaaaa

#1115000
0aaaaa

#1120000
1aaaaa

#1125000
0aaaaa

#1130000
1aaaaa

#1135000
0aaaaa

#1140000
1aaaaa
0aaaaj

#1145000
0aaaaa

#1150000
1aaaaa

#1155000
0aaaaa

#1160000
1aaaaa

#1165000
0aaaaa

#1170000
1aaaaa

#1175000
0aaaaa

#1180000
1aaaaa

#1185000
0aaaaa

#1190000
1aaaaa
1aaaaj
0aaaak

#1195000
0aaaaa

#1200000
1aaaaa

#1205000
0aaaaa

#1210000
1aaaaa

#1215000
0aaaaa

#1220000
1aaaaa

#1225000
0aaaaa

#1230000
1aaaaa

#1235000
0aaaaa

#1240000
1aaaaa
0aaaaj

#1245000
0aaaaa

#1250000
1aaaaa

#1255000
0aaaaa

#1260000
1aaaaa

#1265000
0aaaaa

#1270000
1aaaaa

#1275000
0aaaaa

#1280000
1aaaaa

#1285000
0aaaaa

#1290000
1aaaaa
1aaaaj

#1295000
0aaaaa

#1300000
1aaaaa

#1305000
0aaaaa

#1310000
1aaaaa

#1315000
0aaaaa

#1320000
1aaaaa

#1325000
0aaaaa

#1330000
1aaaaa

#1335000
0aaaaa

#1340000
1aaaaa
0aaaaj

#1345000
0aaaaa

#1350000
1aaaaa

#1355000
0aaaaa

#1360000
1aaaaa

#1365000
0aaaaa

#1370000
1aaaaa

#1375000
0aaaaa

#1380000
1aaaaa

#1385000
0aaaaa

#1390000
1aaaaa
1aaaaj

#1395000
0aaaaa

#1400000
1aaaaa

#1405000
0aaaaa

#1410000
1aaaaa

#1415000
0aaaaa

#1420000
1aaaaa

#1425000
0aaaaa

#1430000
1aaaaa

#1435000
0aaaaa

#1440000
1aaaaa
0aaaaj

#1445000
0aaaaa

#1450000
1aaaaa

#1455000
0aaaaa

#1460000
1aaaaa

#1465000
0aaaaa

#1470000
1aaaaa

#1475000
0aaaaa

#1480000
1aaaaa

#1485000
0aaaaa

#1490000
1aaaaa
1aaaaj

#1495000
0aaaaa

#1500000
1aaaaa

#1505000
0aaaaa

#1510000
1aaaaa

#1515000
0aaaaa

#1520000
1aaaaa

#1525000
0aaaaa

#1530000
1aaaaa

#1535000
0aaaaa

#1540000
1aaaaa
0aaaaj

#1545000
0aaaaa

#1550000
1aaaaa

#1555000
0aaaaa

#1560000
1aaaaa

#1565000
0aaaaa

#1570000
1aaaaa

#1575000
0aaaaa

#1580000
1aaaaa

#1585000
0aaaaa

#1590000
1aaaaa
1aaaaj
1aaaak

#1595000
0aaaaa

#1600000
1aaaaa

#1605000
0aaaaa

#1610000
1aaaaa

#1615000
0aaaaa

#1620000
1aaaaa

#1625000
0aaaaa

#1630000
1aaaaa

#1635000
0aaaaa

#1640000
1aaaaa
0aaaaj

#1645000
0aaaaa

#1650000
1aaaaa

#1655000
0aaaaa

#1660000
1aaaaa

#1665000
0aaaaa

#1670000
1aaaaa

#1675000
0aaaaa

#1680000
1aaaaa

#1685000
0aaaaa

#1690000
1aaaaa
1aaaaj

#1695000
0aaaaa

#1700000
1aaaaa

#1705000
0aaaaa

#1710000
1aaaaa

#1715000
0aaaaa

#1720000
1aaaaa

#1725000
0aaaaa

#1730000
1aaaaa

#1735000
0aaaaa

#1740000
1aaaaa
0aaaaj

#1745000
0aaaaa

#1750000
1aaaaa

#1755000
0aaaaa

#1760000
1aaaaa

#1765000
0aaaaa

#1770000
1aaaaa

#1775000
0aaaaa

#1780000
1aaaaa

#1785000
0aaaaa

#1790000
1aaaaa
1aaaaj
0aaaak

#1795000
0aaaaa

#1800000
1aaaaa

#1805000
0aaaaa

#1810000
1aaaaa

#1815000
0aaaaa

#1820000
1aaaaa

#1825000
0aaaaa

#1830000
1aaaaa

#1835000
0aaaaa

#1840000
1aaaaa
0aaaaj

#1845000
0aaaaa

#1850000
1aaaaa

#1855000
0aaaaa

#1860000
1aaaaa

#1865000
0aaaaa

#1870000
1aaaaa

#1875000
0aaaaa

#1880000
1aaaaa

#1885000
0aaaaa

#1890000
1aaaaa
1aaaaj
1aaaak

#1895000
0aaaaa

#1900000
1aaaaa

#1905000
0aaaaa

#1910000
1aaaaa

#1915000
0aaaaa

#1920000
1aaaaa

#1925000
0aaaaa

#1930000
1aaaaa

#1935000
0aaaaa

#1940000
1aaaaa
0aaaaj

#1945000
0aaaaa

#1950000
1aaaaa

#1955000
0aaaaa

#1960000
1aaaaa

#1965000
0aaaaa

#1970000
1aaaaa

#1975000
0aaaaa

#1980000
1aaaaa

#1985000
0aaaaa

#1990000
1aaaaa
1aaaaj

#1995000
0aaaaa

#2000000
1aaaaa

#2005000
0aaaaa

#2010000
1aaaaa

#2015000
0aaaaa

#2020000
1aaaaa

#2025000
0aaaaa

#2030000
1aaaaa

#2035000
0aaaaa

#2040000
1aaaaa
0aaaaj

#2045000
0aaaaa

#2050000
1aaaaa

#2055000
0aaaaa

#2060000
1aaaaa

#2065000
0aaaaa

#2070000
1aaaaa

#2075000
0aaaaa

#2080000
1aaaaa

#2085000
0aaaaa

#2090000
1aaaaa
1aaaaj
0aaaak

#2095000
0aaaaa

#2100000
1aaaaa

#2105000
0aaaaa

#2110000
1aaaaa

#2115000
0aaaaa

#2120000
1aaaaa

#2125000
0aaaaa

#2130000
1aaaaa

#2135000
0aaaaa

#2140000
1aaaaa
0aaaaj

#2145000
0aaaaa

#2150000
1aaaaa

#2155000
0aaaaa

#2160000
1aaaaa

#2165000
0aaaaa

#2170000
1aaaaa

#2175000
0aaaaa

#2180000
1aaaaa

#2185000
0aaaaa

#2190000
1aaaaa
1aaaaj

#2195000
0aaaaa

#2200000
1aaaaa

#2205000
0aaaaa

#2210000
1aaaaa

#2215000
0aaaaa

#2220000
1aaaaa

#2225000
0aaaaa

#2230000
1aaaaa

#2235000
0aaaaa

#2240000
1aaaaa
0aaaaj

#2245000
0aaaaa

#2250000
1aaaaa

#2255000
0aaaaa

#2260000
1aaaaa

#2265000
0aaaaa

#2270000
1aaaaa

#2275000
0aaaaa

#2280000
1aaaaa

#2285000
0aaaaa

#2290000
1aaaaa
1aaaaj
1aaaak

#2295000
0aaaaa

#2300000
1aaaaa

#2305000
0aaaaa

#2310000
1aaaaa

#2315000
0aaaaa

#2320000
1aaaaa

#2325000
0aaaaa

#2330000
1aaaaa

#2335000
0aaaaa

#2340000
1aaaaa
0aaaaj

#2345000
0aaaaa

#2350000
1aaaaa

#2355000
0aaaaa

#2360000
1aaaaa

#2365000
0aaaaa

#2370000
1aaaaa

#2375000
0aaaaa

#2380000
1aaaaa

#2385000
0aaaaa

#2390000
1aaaaa
1aaaaj
0aaaak

#2395000
0aaaaa

#2400000
1aaaaa

#2405000
0aaaaa

#2410000
1aaaaa

#2415000
0aaaaa

#2420000
1aaaaa

#2425000
0aaaaa

#2430000
1aaaaa

#2435000
0aaaaa

#2440000
1aaaaa
0aaaaj

#2445000
0aaaaa

#2450000
1aaaaa

#2455000
0aaaaa

#2460000
1aaaaa

#2465000
0aaaaa

#2470000
1aaaaa

#2475000
0aaaaa

#2480000
1aaaaa

#2485000
0aaaaa

#2490000
1aaaaa
1aaaaj
1aaaak

#2495000
0aaaaa

#2500000
1aaaaa

#2505000
0aaaaa

#2510000
1aaaaa

#2515000
0aaaaa

#2520000
1aaaaa

#2525000
0aaaaa

#2530000
1aaaaa

#2535000
0aaaaa

#2540000
1aaaaa
0aaaaj

#2545000
0aaaaa

#2550000
1aaaaa

#2555000
0aaaaa

#2560000
1aaaaa

#2565000
0aaaaa

#2570000
1aaaaa

#2575000
0aaaaa

#2580000
1aaaaa

#2585000
0aaaaa

#2590000
1aaaaa
1aaaaj

#2595000
0aaaaa

#2600000
1aaaaa

#2605000
0aaaaa

#2610000
1aaaaa

#2615000
0aaaaa

#2620000
1aaaaa

#2625000
0aaaaa

#2630000
1aaaaa

#2635000
0aaaaa

#2640000
1aaaaa
0aaaaj

#2645000
0aaaaa

#2650000
1aaaaa

#2655000
0aaaaa

#2660000
1aaaaa

#2665000
0aaaaa

#2670000
1aaaaa

#2675000
0aaaaa

#2680000
1aaaaa

#2685000
0aaaaa

#2690000
1aaaaa
1aaaaj
0aaaak

#2695000
0aaaaa

#2700000
1aaaaa

#2705000
0aaaaa

#2710000
1aaaaa

#2715000
0aaaaa

#2720000
1aaaaa

#2725000
0aaaaa

#2730000
1aaaaa

#2735000
0aaaaa

#2740000
1aaaaa
0aaaaj

#2745000
0aaaaa

#2750000
1aaaaa

#2755000
0aaaaa

#2760000
1aaaaa

#2765000
0aaaaa

#2770000
1aaaaa

#2775000
0aaaaa

#2780000
1aaaaa

#2785000
0aaaaa

#2790000
1aaaaa
1aaaaj

#2795000
0aaaaa

#2800000
1aaaaa

#2805000
0aaaaa

#2810000
1aaaaa

#2815000
0aaaaa

#2820000
1aaaaa

#2825000
0aaaaa

#2830000
1aaaaa

#2835000
0aaaaa

#2840000
1aaaaa
0aaaaj

#2845000
0aaaaa

#2850000
1aaaaa

#2855000
0aaaaa

#2860000
1aaaaa

#2865000
0aaaaa

#2870000
1aaaaa

#2875000
0aaaaa

#2880000
1aaaaa

#2885000
0aaaaa

#2890000
1aaaaa
1aaaaj

#2895000
0aaaaa

#2900000
1aaaaa

#2905000
0aaaaa

#2910000
1aaaaa

#2915000
0aaaaa

#2920000
1aaaaa

#2925000
0aaaaa

#2930000
1aaaaa

#2935000
0aaaaa

#2940000
1aaaaa
0aaaaj

#2945000
0aaaaa

#2950000
1aaaaa

#2955000
0aaaaa

#2960000
1aaaaa

#2965000
0aaaaa

#2970000
1aaaaa

#2975000
0aaaaa

#2980000
1aaaaa

#2985000
0aaaaa

#2990000
1aaaaa
1aaaaj

#2995000
0aaaaa

#3000000
1aaaaa

#3005000
0aaaaa

#3010000
1aaaaa

#3015000
0aaaaa

#3020000
1aaaaa

#3025000
0aaaaa

#3030000
1aaaaa

#3035000
0aaaaa

#3040000
1aaaaa
0aaaaj

#3045000
0aaaaa

#3050000
1aaaaa

#3055000
0aaaaa

#3060000
1aaaaa

#3065000
0aaaaa

#3070000
1aaaaa

#3075000
0aaaaa

#3080000
1aaaaa

#3085000
0aaaaa

#3090000
1aaaaa
1aaaaj
1aaaak

#3095000
0aaaaa

#3100000
1aaaaa

#3105000
0aaaaa

#3110000
1aaaaa

#3115000
0aaaaa

#3120000
1aaaaa

#3125000
0aaaaa

#3130000
1aaaaa

#3135000
0aaaaa

#3140000
1aaaaa
0aaaaj

#3145000
0aaaaa

#3150000
1aaaaa

#3155000
0aaaaa

#3160000
1aaaaa

#3165000
0aaaaa

#3170000
1aaaaa

#3175000
0aaaaa

#3180000
1aaaaa

#3185000
0aaaaa

#3190000
1aaaaa
1aaaaj

#3195000
0aaaaa

#3200000
1aaaaa

#3205000
0aaaaa

#3210000
1aaaaa

#3215000
0aaaaa

#3220000
1aaaaa

#3225000
0aaaaa

#3230000
1aaaaa

#3235000
0aaaaa

#3240000
1aaaaa
0aaaaj

#3245000
0aaaaa

#3250000
1aaaaa

#3255000
0aaaaa

#3260000
1aaaaa

#3265000
0aaaaa

#3270000
1aaaaa

#3275000
0aaaaa

#3280000
1aaaaa

#3285000
0aaaaa

#3290000
1aaaaa
1aaaaj

#3295000
0aaaaa

#3300000
1aaaaa

#3305000
0aaaaa

#3310000
1aaaaa

#3315000
0aaaaa

#3320000
1aaaaa

#3325000
0aaaaa

#3330000
1aaaaa

#3335000
0aaaaa

#3340000
1aaaaa
0aaaaj

#3345000
0aaaaa

#3350000
1aaaaa

#3355000
0aaaaa

#3360000
1aaaaa

#3365000
0aaaaa

#3370000
1aaaaa

#3375000
0aaaaa

#3380000
1aaaaa

#3385000
0aaaaa

#3390000
1aaaaa
1aaaaj

#3395000
0aaaaa

#3400000
1aaaaa

#3405000
0aaaaa

#3410000
1aaaaa

#3415000
0aaaaa

#3420000
1aaaaa

#3425000
0aaaaa

#3430000
1aaaaa

#3435000
0aaaaa

#3440000
1aaaaa
0aaaaj

#3445000
0aaaaa

#3450000
1aaaaa

#3455000
0aaaaa

#3460000
1aaaaa

#3465000
0aaaaa

#3470000
1aaaaa

#3475000
0aaaaa

#3480000
1aaaaa

#3485000
0aaaaa

#3490000
1aaaaa
1aaaaj
0aaaak

#3495000
0aaaaa

#3500000
1aaaaa

#3505000
0aaaaa

#3510000
1aaaaa

#3515000
0aaaaa

#3520000
1aaaaa

#3525000
0aaaaa

#3530000
1aaaaa

#3535000
0aaaaa

#3540000
1aaaaa
0aaaaj

#3545000
0aaaaa

#3550000
1aaaaa

#3555000
0aaaaa

#3560000
1aaaaa

#3565000
0aaaaa

#3570000
1aaaaa

#3575000
0aaaaa

#3580000
1aaaaa

#3585000
0aaaaa

#3590000
1aaaaa
1aaaaj
1aaaak

#3595000
0aaaaa

#3600000
1aaaaa

#3605000
0aaaaa

#3610000
1aaaaa

#3615000
0aaaaa

#3620000
1aaaaa

#3625000
0aaaaa

#3630000
1aaaaa

#3635000
0aaaaa

#3640000
1aaaaa
0aaaaj

#3645000
0aaaaa

#3650000
1aaaaa

#3655000
0aaaaa

#3660000
1aaaaa

#3665000
0aaaaa

#3670000
1aaaaa

#3675000
0aaaaa

#3680000
1aaaaa

#3685000
0aaaaa

#3690000
1aaaaa
1aaaaj

#3695000
0aaaaa

#3700000
1aaaaa

#3705000
0aaaaa

#3710000
1aaaaa

#3715000
0aaaaa

#3720000
1aaaaa

#3725000
0aaaaa

#3730000
1aaaaa

#3735000
0aaaaa

#3740000
1aaaaa
0aaaaj

#3745000
0aaaaa

#3750000
1aaaaa

#3755000
0aaaaa

#3760000
1aaaaa

#3765000
0aaaaa

#3770000
1aaaaa

#3775000
0aaaaa

#3780000
1aaaaa

#3785000
0aaaaa

#3790000
1aaaaa
1aaaaj

#3795000
0aaaaa

#3800000
1aaaaa

#3805000
0aaaaa

#3810000
1aaaaa

#3815000
0aaaaa

#3820000
1aaaaa

#3825000
0aaaaa

#3830000
1aaaaa

#3835000
0aaaaa

#3840000
1aaaaa
0aaaaj

#3845000
0aaaaa

#3850000
1aaaaa

#3855000
0aaaaa

#3860000
1aaaaa

#3865000
0aaaaa

#3870000
1aaaaa

#3875000
0aaaaa

#3880000
1aaaaa

#3885000
0aaaaa

#3890000
1aaaaa
1aaaaj

#3895000
0aaaaa

#3900000
1aaaaa

#3905000
0aaaaa

#3910000
1aaaaa

#3915000
0aaaaa

#3920000
1aaaaa

#3925000
0aaaaa

#3930000
1aaaaa

#3935000
0aaaaa

#3940000
1aaaaa
0aaaaj

#3945000
0aaaaa

#3950000
1aaaaa

#3955000
0aaaaa

#3960000
1aaaaa

#3965000
0aaaaa

#3970000
1aaaaa

#3975000
0aaaaa

#3980000
1aaaaa

#3985000
0aaaaa

#3990000
1aaaaa
1aaaaj
0aaaak

#3995000
0aaaaa

#4000000
1aaaaa

#4005000
0aaaaa

#4010000
1aaaaa

#4015000
0aaaaa

#4020000
1aaaaa

#4025000
0aaaaa

#4030000
1aaaaa

#4035000
0aaaaa

#4040000
1aaaaa
0aaaaj

#4045000
0aaaaa

#4050000
1aaaaa

#4055000
0aaaaa

#4060000
1aaaaa

#4065000
0aaaaa

#4070000
1aaaaa

#4075000
0aaaaa

#4080000
1aaaaa

#4085000
0aaaaa

#4090000
1aaaaa
1aaaaj
1aaaak

#4095000
0aaaaa

#4100000
1aaaaa

#4105000
0aaaaa

#4110000
1aaaaa

#4115000
0aaaaa

#4120000
1aaaaa

#4125000
0aaaaa

#4130000
1aaaaa

#4135000
0aaaaa

#4140000
1aaaaa
0aaaaj

#4145000
0aaaaa

#4150000
1aaaaa

#4155000
0aaaaa

#4160000
1aaaaa

#4165000
0aaaaa

#4170000
1aaaaa

#4175000
0aaaaa

#4180000
1aaaaa

#4185000
0aaaaa

#4190000
1aaaaa
1aaaaj
0aaaak

#4195000
0aaaaa

#4200000
1aaaaa

#4205000
0aaaaa

#4210000
1aaaaa

#4215000
0aaaaa

#4220000
1aaaaa

#4225000
0aaaaa

#4230000
1aaaaa

#4235000
0aaaaa

#4240000
1aaaaa
0aaaaj

#4245000
0aaaaa

#4250000
1aaaaa

#4255000
0aaaaa

#4260000
1aaaaa

#4265000
0aaaaa

#4270000
1aaaaa

#4275000
0aaaaa

#4280000
1aaaaa

#4285000
0aaaaa

#4290000
1aaaaa
1aaaaj
1aaaak

#4295000
0aaaaa

#4300000
1aaaaa

#4305000
0aaaaa

#4310000
1aaaaa

#4315000
0aaaaa

#4320000
1aaaaa

#4325000
0aaaaa

#4330000
1aaaaa

#4335000
0aaaaa

#4340000
1aaaaa
0aaaaj

#4345000
0aaaaa

#4350000
1aaaaa

#4355000
0aaaaa

#4360000
1aaaaa

#4365000
0aaaaa

#4370000
1aaaaa

#4375000
0aaaaa

#4380000
1aaaaa

#4385000
0aaaaa

#4390000
1aaaaa
1aaaaj
0aaaak

#4395000
0aaaaa

#4400000
1aaaaa

#4405000
0aaaaa

#4410000
1aaaaa

#4415000
0aaaaa

#4420000
1aaaaa

#4425000
0aaaaa

#4430000
1aaaaa

#4435000
0aaaaa

#4440000
1aaaaa
0aaaaj

#4445000
0aaaaa

#4450000
1aaaaa

#4455000
0aaaaa

#4460000
1aaaaa

#4465000
0aaaaa

#4470000
1aaaaa

#4475000
0aaaaa

#4480000
1aaaaa

#4485000
0aaaaa

#4490000
1aaaaa
1aaaaj
1aaaak

#4495000
0aaaaa

#4500000
1aaaaa

#4505000
0aaaaa

#4510000
1aaaaa

#4515000
0aaaaa

#4520000
1aaaaa

#4525000
0aaaaa

#4530000
1aaaaa

#4535000
0aaaaa

#4540000
1aaaaa
0aaaaj

#4545000
0aaaaa

#4550000
1aaaaa

#4555000
0aaaaa

#4560000
1aaaaa

#4565000
0aaaaa

#4570000
1aaaaa

#4575000
0aaaaa

#4580000
1aaaaa

#4585000
0aaaaa

#4590000
1aaaaa
1aaaaj

#4595000
0aaaaa

#4600000
1aaaaa

#4605000
0aaaaa

#4610000
1aaaaa

#4615000
0aaaaa

#4620000
1aaaaa

#4625000
0aaaaa

#4630000
1aaaaa

#4635000
0aaaaa

#4640000
1aaaaa
0aaaaj

#4645000
0aaaaa

#4650000
1aaaaa

#4655000
0aaaaa

#4660000
1aaaaa

#4665000
0aaaaa

#4670000
1aaaaa

#4675000
0aaaaa

#4680000
1aaaaa

#4685000
0aaaaa

#4690000
1aaaaa
1aaaaj
0aaaak

#4695000
0aaaaa

#4700000
1aaaaa

#4705000
0aaaaa

#4710000
1aaaaa

#4715000
0aaaaa

#4720000
1aaaaa

#4725000
0aaaaa

#4730000
1aaaaa

#4735000
0aaaaa

#4740000
1aaaaa
0aaaaj

#4745000
0aaaaa

#4750000
1aaaaa

#4755000
0aaaaa

#4760000
1aaaaa

#4765000
0aaaaa

#4770000
1aaaaa

#4775000
0aaaaa

#4780000
1aaaaa

#4785000
0aaaaa

#4790000
1aaaaa
1aaaaj
1aaaak

#4795000
0aaaaa

#4800000
1aaaaa

#4805000
0aaaaa

#4810000
1aaaaa

#4815000
0aaaaa

#4820000
1aaaaa

#4825000
0aaaaa

#4830000
1aaaaa

#4835000
0aaaaa

#4840000
1aaaaa
0aaaaj

#4845000
0aaaaa

#4850000
1aaaaa

#4855000
0aaaaa

#4860000
1aaaaa

#4865000
0aaaaa

#4870000
1aaaaa

#4875000
0aaaaa

#4880000
1aaaaa

#4885000
0aaaaa

#4890000
1aaaaa
1aaaaj

#4895000
0aaaaa

#4900000
1aaaaa

#4905000
0aaaaa

#4910000
1aaaaa

#4915000
0aaaaa

#4920000
1aaaaa

#4925000
0aaaaa

#4930000
1aaaaa

#4935000
0aaaaa

#4940000
1aaaaa
0aaaaj

#4945000
0aaaaa

#4950000
1aaaaa

#4955000
0aaaaa

#4960000
1aaaaa

#4965000
0aaaaa

#4970000
1aaaaa

#4975000
0aaaaa

#4980000
1aaaaa

#4985000
0aaaaa

#4990000
1aaaaa
1aaaaj
0aaaak

#4995000
0aaaaa

#5000000
1aaaaa

#5005000
0aaaaa

#5010000
1aaaaa

#5015000
0aaaaa

#5020000
1aaaaa

#5025000
0aaaaa

#5030000
1aaaaa

#5035000
0aaaaa

#5040000
1aaaaa
0aaaaj

#5045000
0aaaaa

#5050000
1aaaaa

#5055000
0aaaaa

#5060000
1aaaaa

#5065000
0aaaaa

#5070000
1aaaaa

#5075000
0aaaaa

#5080000
1aaaaa

#5085000
0aaaaa

#5090000
1aaaaa
1aaaaj
1aaaak

#5095000
0aaaaa

#5100000
1aaaaa

#5105000
0aaaaa

#5110000
1aaaaa

#5115000
0aaaaa

#5120000
1aaaaa

#5125000
0aaaaa

#5130000
1aaaaa

#5135000
0aaaaa

#5140000
1aaaaa
0aaaaj

#5145000
0aaaaa

#5150000
1aaaaa

#5155000
0aaaaa

#5160000
1aaaaa

#5165000
0aaaaa

#5170000
1aaaaa

#5175000
0aaaaa

#5180000
1aaaaa

#5185000
0aaaaa

#5190000
1aaaaa
1aaaaj

#5195000
0aaaaa

#5200000
1aaaaa

#5205000
0aaaaa

#5210000
1aaaaa

#5215000
0aaaaa

#5220000
1aaaaa

#5225000
0aaaaa

#5230000
1aaaaa

#5235000
0aaaaa

#5240000
1aaaaa
0aaaaj

#5245000
0aaaaa

#5250000
1aaaaa

#5255000
0aaaaa

#5260000
1aaaaa

#5265000
0aaaaa

#5270000
1aaaaa

#5275000
0aaaaa

#5280000
1aaaaa

#5285000
0aaaaa

#5290000
1aaaaa
1aaaaj

#5295000
0aaaaa

#5300000
1aaaaa

#5305000
0aaaaa

#5310000
1aaaaa

#5315000
0aaaaa

#5320000
1aaaaa

#5325000
0aaaaa

#5330000
1aaaaa

#5335000
0aaaaa

#5340000
1aaaaa
0aaaaj

#5345000
0aaaaa

#5350000
1aaaaa

#5355000
0aaaaa

#5360000
1aaaaa

#5365000
0aaaaa

#5370000
1aaaaa

#5375000
0aaaaa

#5380000
1aaaaa

#5385000
0aaaaa

#5390000
1aaaaa
1aaaaj

#5395000
0aaaaa

#5400000
1aaaaa

#5405000
0aaaaa

#5410000
1aaaaa

#5415000
0aaaaa

#5420000
1aaaaa

#5425000
0aaaaa

#5430000
1aaaaa

#5435000
0aaaaa

#5440000
1aaaaa
0aaaaj

#5445000
0aaaaa

#5450000
1aaaaa

#5455000
0aaaaa

#5460000
1aaaaa

#5465000
0aaaaa

#5470000
1aaaaa

#5475000
0aaaaa

#5480000
1aaaaa

#5485000
0aaaaa

#5490000
1aaaaa
1aaaaj

#5495000
0aaaaa

#5500000
1aaaaa

#5505000
0aaaaa

#5510000
1aaaaa

#5515000
0aaaaa

#5520000
1aaaaa

#5525000
0aaaaa

#5530000
1aaaaa

#5535000
0aaaaa

#5540000
1aaaaa
0aaaaj

#5545000
0aaaaa

#5550000
1aaaaa

#5555000
0aaaaa

#5560000
1aaaaa

#5565000
0aaaaa

#5570000
1aaaaa

#5575000
0aaaaa

#5580000
1aaaaa

#5585000
0aaaaa

#5590000
1aaaaa
1aaaaj
0aaaak

#5595000
0aaaaa

#5600000
1aaaaa

#5605000
0aaaaa

#5610000
1aaaaa

#5615000
0aaaaa

#5620000
1aaaaa

#5625000
0aaaaa

#5630000
1aaaaa

#5635000
0aaaaa

#5640000
1aaaaa
0aaaaj

#5645000
0aaaaa

#5650000
1aaaaa

#5655000
0aaaaa

#5660000
1aaaaa

#5665000
0aaaaa

#5670000
1aaaaa

#5675000
0aaaaa

#5680000
1aaaaa

#5685000
0aaaaa

#5690000
1aaaaa
1aaaaj
1aaaak

#5695000
0aaaaa

#5700000
1aaaaa

#5705000
0aaaaa

